Saffron Evergreen - FOXP1 Analysis
…
Just messing around with interactive plots.

library(pacman)
p_load(readr, tidyr, magrittr, knitr, tidyverse, janitor, broom, ggplot2, forcats, epitools, dplyr, xfun, plotly)

# load data
# imported from directory
# Helpful note to self: when loading csv files from "copy path" delete 'C:' and change all \ to /
CVFP1 <- read_csv("/Users/mckjo/OneDrive/Desktop/GitBlog/posts/FOXP1 Analysis/ShinyClinVar.csv")

# clean variable names
janitor::clean_names(CVFP1)

# A tibble: 144 × 14
      x1 link         gene_symbol type  consequence clinical_significance review
   <dbl> <chr>        <chr>       <chr> <chr>       <chr>                 <chr> 
 1     1 "<a href=\"… FOXP1       SNV   Stop gain   Pathogenic            Crite…
 2     2 "<a href=\"… FOXP1       SNV   Missense    Benign/Likely benign  Crite…
 3     3 "<a href=\"… FOXP1       SNV   Intronic    Benign                Crite…
 4     5 "<a href=\"… FOXP1       SNV   Intronic    Benign                Crite…
 5     6 "<a href=\"… FOXP1       SNV   Missense    Likely benign         Crite…
 6     7 "<a href=\"… FOXP1       SNV   Intronic    Benign                Crite…
 7     8 "<a href=\"… FOXP1       SNV   Missense    Benign/Likely benign  Crite…
 8    11 "<a href=\"… FOXP1       SNV   Missense    Pathogenic            No as…
 9    12 "<a href=\"… FOXP1       SNV   Missense    Likely benign         Crite…
10    13 "<a href=\"… FOXP1       SNV   Synonymous  Uncertain/conflicting Crite…
# ℹ 134 more rows
# ℹ 7 more variables: phenotype_list <chr>, name <chr>, ref_aa <chr>,
#   alt_aa <chr>, pos_aa <dbl>, cadd_phred <chr>, gnom_ad_binary_char <chr>
…
